^D:\NBIZ_INSPECTSTOCK\TASK\VS10MASTER\DEBUG\BOXCONTROL.OBJ|D:\NBIZ_INSPECTSTOCK\TASK\VS10MASTER\DEBUG\CLIPBOARD.OBJ|D:\NBIZ_INSPECTSTOCK\TASK\VS10MASTER\DEBUG\COLORSTATICST.OBJ|D:\NBIZ_INSPECTSTOCK\TASK\VS10MASTER\DEBUG\ROUNDBUTTON2.OBJ|D:\NBIZ_INSPECTSTOCK\TASK\VS10MASTER\DEBUG\ROUNDBUTTONSTYLE.OBJ|D:\NBIZ_INSPECTSTOCK\TASK\VS10MASTER\DEBUG\STDAFX.OBJ|D:\NBIZ_INSPECTSTOCK\TASK\VS10MASTER\DEBUG\VS10MASTER.EXE.EMBED.MANIFEST.RES|D:\NBIZ_INSPECTSTOCK\TASK\VS10MASTER\DEBUG\VS11INDEXER.OBJ|D:\NBIZ_INSPECTSTOCK\TASK\VS10MASTER\DEBUG\VS11INDEXER.RES|D:\NBIZ_INSPECTSTOCK\TASK\VS10MASTER\DEBUG\VS11INDEXERDLG.OBJ|D:\NBIZ_INSPECTSTOCK\TASK\VS10MASTER\DEBUG\XLISTBOX.OBJ
/ERRORREPORT:PROMPT /OUT:"..\..\Exe\VS10Master.exe" /INCREMENTAL /NOLOGO /MANIFEST /ManifestFile:"Debug\VS10Master.exe.intermediate.manifest" /MANIFESTUAC:"level='asInvoker' uiAccess='false'" /DEBUG /PDB:"D:\nBiz_InspectStock\Exe\VS10Master.pdb" /SUBSYSTEM:WINDOWS /TLBID:1 /DYNAMICBASE /NXCOMPAT /IMPLIB:"..\..\Exe\VS10Master.lib" /MACHINE:X86 Debug\VS11Indexer.res
Debug\VS10Master.exe.embed.manifest.res
Debug\ColorStaticST.obj
Debug\BoxControl.obj
Debug\RoundButton2.obj
Debug\RoundButtonStyle.obj
Debug\Clipboard.obj
Debug\XListBox.obj
Debug\stdafx.obj
Debug\VS11Indexer.obj
Debug\VS11IndexerDlg.obj
