^D:\NBIZ_INSPECTSTOCK\TASK\VS32MEASURE2D\VS32MEASURE2D.RC
/D _DEBUG /l"0x0412" /Ix64\Debug\ /nologo /fo"x64\Debug\VS32Measure2D.res" VS32Measure2D.rc /D _DEBUG /l"0x0412" /Ix64\Debug\ /nologo /fo"x64\Debug\VS32Measure2D.res" D:\NBIZ_INSPECTSTOCK\TASK\VS32MEASURE2D\VS32MEASURE2D.RC
^D:\NBIZ_INSPECTSTOCK\TASK\VS32MEASURE2D\X64\DEBUG\VS32MEASURE2D_MANIFEST.RC
/nologo /fo"x64\Debug\VS32Measure2D.exe.embed.manifest.res" x64\Debug\VS32Measure2D_manifest.rc /nologo /fo"x64\Debug\VS32Measure2D.exe.embed.manifest.res" D:\NBIZ_INSPECTSTOCK\TASK\VS32MEASURE2D\X64\DEBUG\VS32MEASURE2D_MANIFEST.RC
