^D:\NBIZ_INSPECTSTOCK\TASK\VS11INDEXER\RELEASE\BCRCTRL.OBJ|D:\NBIZ_INSPECTSTOCK\TASK\VS11INDEXER\RELEASE\BOXOPENER.OBJ|D:\NBIZ_INSPECTSTOCK\TASK\VS11INDEXER\RELEASE\BOXTABLE.OBJ|D:\NBIZ_INSPECTSTOCK\TASK\VS11INDEXER\RELEASE\BOXTRANSPER.OBJ|D:\NBIZ_INSPECTSTOCK\TASK\VS11INDEXER\RELEASE\CLIPBOARD.OBJ|D:\NBIZ_INSPECTSTOCK\TASK\VS11INDEXER\RELEASE\DISPLAYDLG1.OBJ|D:\NBIZ_INSPECTSTOCK\TASK\VS11INDEXER\RELEASE\DISPLAYDLG2.OBJ|D:\NBIZ_INSPECTSTOCK\TASK\VS11INDEXER\RELEASE\EMISSIONTABLE.OBJ|D:\NBIZ_INSPECTSTOCK\TASK\VS11INDEXER\RELEASE\LOADINGTABLE.OBJ|D:\NBIZ_INSPECTSTOCK\TASK\VS11INDEXER\RELEASE\MAINCONTROL.OBJ|D:\NBIZ_INSPECTSTOCK\TASK\VS11INDEXER\RELEASE\ROUNDBUTTON2.OBJ|D:\NBIZ_INSPECTSTOCK\TASK\VS11INDEXER\RELEASE\ROUNDBUTTONSTYLE.OBJ|D:\NBIZ_INSPECTSTOCK\TASK\VS11INDEXER\RELEASE\STDAFX.OBJ|D:\NBIZ_INSPECTSTOCK\TASK\VS11INDEXER\RELEASE\STICKTRANSPER.OBJ|D:\NBIZ_INSPECTSTOCK\TASK\VS11INDEXER\RELEASE\TURNTABLE.OBJ|D:\NBIZ_INSPECTSTOCK\TASK\VS11INDEXER\RELEASE\UNLOADINGTABLE.OBJ|D:\NBIZ_INSPECTSTOCK\TASK\VS11INDEXER\RELEASE\VS11INDEXER.OBJ|D:\NBIZ_INSPECTSTOCK\TASK\VS11INDEXER\RELEASE\VS11INDEXER.RES|D:\NBIZ_INSPECTSTOCK\TASK\VS11INDEXER\RELEASE\VS11INDEXERDLG.OBJ|D:\NBIZ_INSPECTSTOCK\TASK\VS11INDEXER\RELEASE\XLISTBOX.OBJ
/ERRORREPORT:PROMPT /OUT:"..\..\Exe\VS11Indexer.exe" /INCREMENTAL:NO /NOLOGO /MANIFEST /ManifestFile:"Release\VS11Indexer.exe.intermediate.manifest" /MANIFESTUAC:"level='asInvoker' uiAccess='false'" /DEBUG /PDB:"d:\nBiz_InspectStock\Exe\VS11Indexer.pdb" /SUBSYSTEM:WINDOWS /OPT:REF /OPT:ICF /LTCG /TLBID:1 /DYNAMICBASE /NXCOMPAT /IMPLIB:"..\..\Exe\VS11Indexer.lib" /MACHINE:X86 Release\VS11Indexer.res
Release\BCRCtrl.obj
Release\BoxOpener.obj
Release\BoxTable.obj
Release\BoxTransper.obj
Release\RoundButton2.obj
Release\RoundButtonStyle.obj
Release\DisplayDlg1.obj
Release\DisplayDlg2.obj
Release\EmissionTable.obj
Release\Clipboard.obj
Release\XListBox.obj
Release\LoadingTable.obj
Release\MainControl.obj
Release\stdafx.obj
Release\StickTransper.obj
Release\TurnTable.obj
Release\UnloadingTable.obj
Release\VS11Indexer.obj
Release\VS11IndexerDlg.obj
