;Server IP			:
;Port No			: Server 로 연결 할 Port No
;Station No  			: Station No
;Task No			: 자신의 Task No
;Mode 				: 1 = Runtime, 2 = Demo
;Log Task No 			: Log Task No
;Log Block Level		: Log 기록을 Block 할 Level
;Server Reconnect Time 		: Server 와 연결이 끊겼을 경우 다시 시도 할 시간, 단위 ms
;Display Rect Left		: Message Box 가 화면에 표시될 영역 
;Display Rect Top		: Message Box 가 화면에 표시될 영역 
;Display Rect Right		: Message Box 가 화면에 표시될 영역 
;Display Rect Bottom		: Message Box 가 화면에 표시될 영역 
;Increase Pixel X		: 화면에 Message Box 가 표시 될때 X 축 증가 분량
;Increase Pixel Y		: 화면에 Message Box 가 표시 될때 Y 축 증가 분량

;-----------------------------------------------------------------------
Server IP 			= 127.0.0.1   
;Server IP 			= 192.168.1.101
Port No 			= 5000
Station No 			= 0
Task No 			= 99
Mode 				= 1
Log Task No 			= 60
Log Block Level			= 4
Log FIle ID			= 99
;-------------------------------------------------------------------------